…
```r
tidy_dt <- dt %>% 
  unnest_tokens(word, text)
tidy_dt
```

```
## # A tibble: 23 x 2
##       id word 
##    <dbl> <chr>
##  1     1 this 
##  2     1 is   
##  3     1 a    
##  4     1 good 
##  5     1 dog  
##  6     1 boy  
##  7     1 it   
##  8     1 sure 
##  9     1 is   
## 10     1 hot  
## # ... with 13 more rows
```

```r
tidy_ngram_dt <- dt %>% 
  unnest_tokens(words, text, token = "ngrams", n = 2, collapse = "id") %>% 
  mutate(.ngramID = row_number()) %>% 
  unnest_tokens(word, words) %>% 
  unite(.ngramID, id, .ngramID)

tidy_pmi <- tidy_ngram_dt %>% 
  pairwise_pmi(item = word, feature = .ngramID, sort = TRUE)
tidy_pmi
```

```
## # A tibble: 34 x 3
##    item1  item2    pmi
##    <chr>  <chr>  <dbl>
##  1 huh    today  2.35 
##  2 today  huh    2.35 
##  3 month  summer 2.35 
##  4 summer month  2.35 
##  5 sure   it     1.66 
##  6 it     sure   1.66 
##  7 who    is     0.965
##  8 dog    good   0.965
##  9 good   dog    0.965
## 10 boy    dog    0.965
## # ... with 24 more rows
```
…
tidy_pmi2 <- nested_words %>%
  mutate(words = map(words, slide_windows, 2L)) %>%
  unnest(words) %>%
  unite(window_id, id, window_id) %>%
  pairwise_pmi(word, window_id, sort = TRUE)

tidy_pmi
```

```
## # A tibble: 34 x 3
##    item1  item2    pmi
##    <chr>  <chr>  <dbl>
##  1 huh    today  2.35 
##  2 today  huh    2.35 
##  3 month  summer 2.35 
##  4 summer month  2.35 
##  5 sure   it     1.66 
##  6 it     sure   1.66 
##  7 who    is     0.965
##  8 dog    good   0.965
##  9 good   dog    0.965
## 10 boy    dog    0.965
## # ... with 24 more rows
```
…
